05-Workflows
…
05-Workflows

Checking what could go wrong

ames_zsplit <- ames %>% 
  mutate(z_price = (Sale_Price - mean(Sale_Price)) / sd(Sale_Price)) %>% 
  initial_split()

ames %>% 
  mutate(z_price = (Sale_Price - mean(Sale_Price)) / sd(Sale_Price)) %>%
  select(Sale_Price, z_price)

## # A tibble: 2,930 x 2
##    Sale_Price z_price
##         <int>   <dbl>
##  1     215000   0.428
##  2     105000  -0.949
##  3     172000  -0.110
##  4     244000   0.791
##  5     189900   0.114
##  6     195500   0.184
##  7     213500   0.409
##  8     191500   0.134
##  9     236500   0.697
## 10     189000   0.103
## #  with 2,920 more rows
…
Your Turn 4

But what about the predictions of our model? Save the fitted object from your regression tree, and use collect_predictions() to see the predictions generated from the test data.

all_fitwf <- fit_split(rt_wf, split = ames_split) 
  # tidyr::unnest(cols = .predictions)

preds <- all_fitwf %>% 
  collect_predictions()
preds

## # A tibble: 732 x 4
##    id                 .pred  .row Sale_Price
##    <chr>              <dbl> <int>      <int>
##  1 train/test split 153440.     1     215000
##  2 train/test split 120628.     2     105000
##  3 train/test split 153440.     4     244000
##  4 train/test split 195843.    11     175900
##  5 train/test split 323855.    16     538000
##  6 train/test split 381772.    18     394432
##  7 train/test split 120628.    26     142000
##  8 train/test split 120628.    30      96000
##  9 train/test split 195843.    56     216500
## 10 train/test split 245337.    65     221000
## #  with 722 more rows
…
